432
7.122192920723224 0.0 0.0 0.0 7.122192920723224 0.0 0.0 0.0 7.122192920723224
A 0.0 0.0 0.0
A 0.0 0.0 1.1870321534538706
A 0.0 0.0 2.374064306907741
A 0.0 0.0 3.561096460361612
A 0.0 0.0 4.748128613815482
A 0.0 0.0 5.935160767269353
A 0.0 1.1870321534538706 0.0
A 0.0 1.1870321534538706 1.1870321534538706
A 0.0 1.1870321534538706 2.374064306907741
A 0.0 1.1870321534538706 3.561096460361612
A 0.0 1.1870321534538706 4.748128613815482
A 0.0 1.1870321534538706 5.935160767269353
A 0.0 2.374064306907741 0.0
A 0.0 2.374064306907741 1.1870321534538706
A 0.0 2.374064306907741 2.374064306907741
A 0.0 2.374064306907741 3.561096460361612
A 0.0 2.374064306907741 4.748128613815482
A 0.0 2.374064306907741 5.935160767269353
A 0.0 3.561096460361612 0.0
A 0.0 3.561096460361612 1.1870321534538706
A 0.0 3.561096460361612 2.374064306907741
A 0.0 3.561096460361612 3.561096460361612
A 0.0 3.561096460361612 4.748128613815482
A 0.0 3.561096460361612 5.935160767269353
A 0.0 4.748128613815482 0.0
A 0.0 4.748128613815482 1.1870321534538706
A 0.0 4.748128613815482 2.374064306907741
A 0.0 4.748128613815482 3.561096460361612
A 0.0 4.748128613815482 4.748128613815482
A 0.0 4.748128613815482 5.935160767269353
A 0.0 5.935160767269353 0.0
A 0.0 5.935160767269353 1.1870321534538706
A 0.0 5.935160767269353 2.374064306907741
A 0.0 5.935160767269353 3.561096460361612
A 0.0 5.935160767269353 4.748128613815482
A 0.0 5.935160767269353 5.935160767269353
A 1.1870321534538706 0.0 0.0
A 1.1870321534538706 0.0 1.1870321534538706
A 1.1870321534538706 0.0 2.374064306907741
A 1.1870321534538706 0.0 3.561096460361612
A 1.1870321534538706 0.0 4.748128613815482
A 1.1870321534538706 0.0 5.935160767269353
A 1.1870321534538706 1.1870321534538706 0.0
A 1.1870321534538706 1.1870321534538706 1.1870321534538706
A 1.1870321534538706 1.1870321534538706 2.374064306907741
A 1.1870321534538706 1.1870321534538706 3.561096460361612
A 1.1870321534538706 1.1870321534538706 4.748128613815482
A 1.1870321534538706 1.1870321534538706 5.935160767269353
A 1.1870321534538706 2.374064306907741 0.0
A 1.1870321534538706 2.374064306907741 1.1870321534538706
A 1.1870321534538706 2.374064306907741 2.374064306907741
A 1.1870321534538706 2.374064306907741 3.561096460361612
A 1.1870321534538706 2.374064306907741 4.748128613815482
A 1.1870321534538706 2.374064306907741 5.935160767269353
A 1.1870321534538706 3.561096460361612 0.0
A 1.1870321534538706 3.561096460361612 1.1870321534538706
A 1.1870321534538706 3.561096460361612 2.374064306907741
A 1.1870321534538706 3.561096460361612 3.561096460361612
A 1.1870321534538706 3.561096460361612 4.748128613815482
A 1.1870321534538706 3.561096460361612 5.935160767269353
A 1.1870321534538706 4.748128613815482 0.0
A 1.1870321534538706 4.748128613815482 1.1870321534538706
A 1.1870321534538706 4.748128613815482 2.374064306907741
A 1.1870321534538706 4.748128613815482 3.561096460361612
A 1.1870321534538706 4.748128613815482 4.748128613815482
A 1.1870321534538706 4.748128613815482 5.935160767269353
A 1.1870321534538706 5.935160767269353 0.0
A 1.1870321534538706 5.935160767269353 1.1870321534538706
A 1.1870321534538706 5.935160767269353 2.374064306907741
A 1.1870321534538706 5.935160767269353 3.561096460361612
A 1.1870321534538706 5.935160767269353 4.748128613815482
A 1.1870321534538706 5.935160767269353 5.935160767269353
A 2.374064306907741 0.0 0.0
A 2.374064306907741 0.0 1.1870321534538706
A 2.374064306907741 0.0 2.374064306907741
A 2.374064306907741 0.0 3.561096460361612
A 2.374064306907741 0.0 4.748128613815482
A 2.374064306907741 0.0 5.935160767269353
A 2.374064306907741 1.1870321534538706 0.0
A 2.374064306907741 1.1870321534538706 1.1870321534538706
A 2.374064306907741 1.1870321534538706 2.374064306907741
A 2.374064306907741 1.1870321534538706 3.561096460361612
A 2.374064306907741 1.1870321534538706 4.748128613815482
A 2.374064306907741 1.1870321534538706 5.935160767269353
A 2.374064306907741 2.374064306907741 0.0
A 2.374064306907741 2.374064306907741 1.1870321534538706
A 2.374064306907741 2.374064306907741 2.374064306907741
A 2.374064306907741 2.374064306907741 3.561096460361612
A 2.374064306907741 2.374064306907741 4.748128613815482
A 2.374064306907741 2.374064306907741 5.935160767269353
A 2.374064306907741 3.561096460361612 0.0
A 2.374064306907741 3.561096460361612 1.1870321534538706
A 2.374064306907741 3.561096460361612 2.374064306907741
A 2.374064306907741 3.561096460361612 3.561096460361612
A 2.374064306907741 3.561096460361612 4.748128613815482
A 2.374064306907741 3.561096460361612 5.935160767269353
A 2.374064306907741 4.748128613815482 0.0
A 2.374064306907741 4.748128613815482 1.1870321534538706
A 2.374064306907741 4.748128613815482 2.374064306907741
A 2.374064306907741 4.748128613815482 3.561096460361612
A 2.374064306907741 4.748128613815482 4.748128613815482
A 2.374064306907741 4.748128613815482 5.935160767269353
A 2.374064306907741 5.935160767269353 0.0
A 2.374064306907741 5.935160767269353 1.1870321534538706
A 2.374064306907741 5.935160767269353 2.374064306907741
A 2.374064306907741 5.935160767269353 3.561096460361612
A 2.374064306907741 5.935160767269353 4.748128613815482
A 2.374064306907741 5.935160767269353 5.935160767269353
A 3.561096460361612 0.0 0.0
A 3.561096460361612 0.0 1.1870321534538706
A 3.561096460361612 0.0 2.374064306907741
A 3.561096460361612 0.0 3.561096460361612
A 3.561096460361612 0.0 4.748128613815482
A 3.561096460361612 0.0 5.935160767269353
A 3.561096460361612 1.1870321534538706 0.0
A 3.561096460361612 1.1870321534538706 1.1870321534538706
A 3.561096460361612 1.1870321534538706 2.374064306907741
A 3.561096460361612 1.1870321534538706 3.561096460361612
A 3.561096460361612 1.1870321534538706 4.748128613815482
A 3.561096460361612 1.1870321534538706 5.935160767269353
A 3.561096460361612 2.374064306907741 0.0
A 3.561096460361612 2.374064306907741 1.1870321534538706
A 3.561096460361612 2.374064306907741 2.374064306907741
A 3.561096460361612 2.374064306907741 3.561096460361612
A 3.561096460361612 2.374064306907741 4.748128613815482
A 3.561096460361612 2.374064306907741 5.935160767269353
A 3.561096460361612 3.561096460361612 0.0
A 3.561096460361612 3.561096460361612 1.1870321534538706
A 3.561096460361612 3.561096460361612 2.374064306907741
A 3.561096460361612 3.561096460361612 3.561096460361612
A 3.561096460361612 3.561096460361612 4.748128613815482
A 3.561096460361612 3.561096460361612 5.935160767269353
A 3.561096460361612 4.748128613815482 0.0
A 3.561096460361612 4.748128613815482 1.1870321534538706
A 3.561096460361612 4.748128613815482 2.374064306907741
A 3.561096460361612 4.748128613815482 3.561096460361612
A 3.561096460361612 4.748128613815482 4.748128613815482
A 3.561096460361612 4.748128613815482 5.935160767269353
A 3.561096460361612 5.935160767269353 0.0
A 3.561096460361612 5.935160767269353 1.1870321534538706
A 3.561096460361612 5.935160767269353 2.374064306907741
A 3.561096460361612 5.935160767269353 3.561096460361612
A 3.561096460361612 5.935160767269353 4.748128613815482
A 3.561096460361612 5.935160767269353 5.935160767269353
A 4.748128613815482 0.0 0.0
A 4.748128613815482 0.0 1.1870321534538706
A 4.748128613815482 0.0 2.374064306907741
A 4.748128613815482 0.0 3.561096460361612
A 4.748128613815482 0.0 4.748128613815482
A 4.748128613815482 0.0 5.935160767269353
A 4.748128613815482 1.1870321534538706 0.0
A 4.748128613815482 1.1870321534538706 1.1870321534538706
A 4.748128613815482 1.1870321534538706 2.374064306907741
A 4.748128613815482 1.1870321534538706 3.561096460361612
A 4.748128613815482 1.1870321534538706 4.748128613815482
A 4.748128613815482 1.1870321534538706 5.935160767269353
A 4.748128613815482 2.374064306907741 0.0
A 4.748128613815482 2.374064306907741 1.1870321534538706
A 4.748128613815482 2.374064306907741 2.374064306907741
A 4.748128613815482 2.374064306907741 3.561096460361612
A 4.748128613815482 2.374064306907741 4.748128613815482
A 4.748128613815482 2.374064306907741 5.935160767269353
A 4.748128613815482 3.561096460361612 0.0
A 4.748128613815482 3.561096460361612 1.1870321534538706
A 4.748128613815482 3.561096460361612 2.374064306907741
A 4.748128613815482 3.561096460361612 3.561096460361612
A 4.748128613815482 3.561096460361612 4.748128613815482
A 4.748128613815482 3.561096460361612 5.935160767269353
A 4.748128613815482 4.748128613815482 0.0
A 4.748128613815482 4.748128613815482 1.1870321534538706
A 4.748128613815482 4.748128613815482 2.374064306907741
A 4.748128613815482 4.748128613815482 3.561096460361612
A 4.748128613815482 4.748128613815482 4.748128613815482
A 4.748128613815482 4.748128613815482 5.935160767269353
A 4.748128613815482 5.935160767269353 0.0
A 4.748128613815482 5.935160767269353 1.1870321534538706
A 4.748128613815482 5.935160767269353 2.374064306907741
A 4.748128613815482 5.935160767269353 3.561096460361612
A 4.748128613815482 5.935160767269353 4.748128613815482
A 4.748128613815482 5.935160767269353 5.935160767269353
A 5.935160767269353 0.0 0.0
A 5.935160767269353 0.0 1.1870321534538706
A 5.935160767269353 0.0 2.374064306907741
A 5.935160767269353 0.0 3.561096460361612
A 5.935160767269353 0.0 4.748128613815482
A 5.935160767269353 0.0 5.935160767269353
A 5.935160767269353 1.1870321534538706 0.0
A 5.935160767269353 1.1870321534538706 1.1870321534538706
A 5.935160767269353 1.1870321534538706 2.374064306907741
A 5.935160767269353 1.1870321534538706 3.561096460361612
A 5.935160767269353 1.1870321534538706 4.748128613815482
A 5.935160767269353 1.1870321534538706 5.935160767269353
A 5.935160767269353 2.374064306907741 0.0
A 5.935160767269353 2.374064306907741 1.1870321534538706
A 5.935160767269353 2.374064306907741 2.374064306907741
A 5.935160767269353 2.374064306907741 3.561096460361612
A 5.935160767269353 2.374064306907741 4.748128613815482
A 5.935160767269353 2.374064306907741 5.935160767269353
A 5.935160767269353 3.561096460361612 0.0
A 5.935160767269353 3.561096460361612 1.1870321534538706
A 5.935160767269353 3.561096460361612 2.374064306907741
A 5.935160767269353 3.561096460361612 3.561096460361612
A 5.935160767269353 3.561096460361612 4.748128613815482
A 5.935160767269353 3.561096460361612 5.935160767269353
A 5.935160767269353 4.748128613815482 0.0
A 5.935160767269353 4.748128613815482 1.1870321534538706
A 5.935160767269353 4.748128613815482 2.374064306907741
A 5.935160767269353 4.748128613815482 3.561096460361612
A 5.935160767269353 4.748128613815482 4.748128613815482
A 5.935160767269353 4.748128613815482 5.935160767269353
A 5.935160767269353 5.935160767269353 0.0
A 5.935160767269353 5.935160767269353 1.1870321534538706
A 5.935160767269353 5.935160767269353 2.374064306907741
A 5.935160767269353 5.935160767269353 3.561096460361612
A 5.935160767269353 5.935160767269353 4.748128613815482
A 5.935160767269353 5.935160767269353 5.935160767269353
A 0.5935160767269353 0.5935160767269353 0.5935160767269353
A 0.5935160767269353 0.5935160767269353 1.780548230180806
A 0.5935160767269353 0.5935160767269353 2.9675803836346764
A 0.5935160767269353 0.5935160767269353 4.154612537088547
A 0.5935160767269353 0.5935160767269353 5.3416446905424175
A 0.5935160767269353 0.5935160767269353 6.528676843996288
A 0.5935160767269353 1.780548230180806 0.5935160767269353
A 0.5935160767269353 1.780548230180806 1.780548230180806
A 0.5935160767269353 1.780548230180806 2.9675803836346764
A 0.5935160767269353 1.780548230180806 4.154612537088547
A 0.5935160767269353 1.780548230180806 5.3416446905424175
A 0.5935160767269353 1.780548230180806 6.528676843996288
A 0.5935160767269353 2.9675803836346764 0.5935160767269353
A 0.5935160767269353 2.9675803836346764 1.780548230180806
A 0.5935160767269353 2.9675803836346764 2.9675803836346764
A 0.5935160767269353 2.9675803836346764 4.154612537088547
A 0.5935160767269353 2.9675803836346764 5.3416446905424175
A 0.5935160767269353 2.9675803836346764 6.528676843996288
A 0.5935160767269353 4.154612537088547 0.5935160767269353
A 0.5935160767269353 4.154612537088547 1.780548230180806
A 0.5935160767269353 4.154612537088547 2.9675803836346764
A 0.5935160767269353 4.154612537088547 4.154612537088547
A 0.5935160767269353 4.154612537088547 5.3416446905424175
A 0.5935160767269353 4.154612537088547 6.528676843996288
A 0.5935160767269353 5.3416446905424175 0.5935160767269353
A 0.5935160767269353 5.3416446905424175 1.780548230180806
A 0.5935160767269353 5.3416446905424175 2.9675803836346764
A 0.5935160767269353 5.3416446905424175 4.154612537088547
A 0.5935160767269353 5.3416446905424175 5.3416446905424175
A 0.5935160767269353 5.3416446905424175 6.528676843996288
A 0.5935160767269353 6.528676843996288 0.5935160767269353
A 0.5935160767269353 6.528676843996288 1.780548230180806
A 0.5935160767269353 6.528676843996288 2.9675803836346764
A 0.5935160767269353 6.528676843996288 4.154612537088547
A 0.5935160767269353 6.528676843996288 5.3416446905424175
A 0.5935160767269353 6.528676843996288 6.528676843996288
A 1.780548230180806 0.5935160767269353 0.5935160767269353
A 1.780548230180806 0.5935160767269353 1.780548230180806
A 1.780548230180806 0.5935160767269353 2.9675803836346764
A 1.780548230180806 0.5935160767269353 4.154612537088547
A 1.780548230180806 0.5935160767269353 5.3416446905424175
A 1.780548230180806 0.5935160767269353 6.528676843996288
A 1.780548230180806 1.780548230180806 0.5935160767269353
A 1.780548230180806 1.780548230180806 1.780548230180806
A 1.780548230180806 1.780548230180806 2.9675803836346764
A 1.780548230180806 1.780548230180806 4.154612537088547
A 1.780548230180806 1.780548230180806 5.3416446905424175
A 1.780548230180806 1.780548230180806 6.528676843996288
A 1.780548230180806 2.9675803836346764 0.5935160767269353
A 1.780548230180806 2.9675803836346764 1.780548230180806
A 1.780548230180806 2.9675803836346764 2.9675803836346764
A 1.780548230180806 2.9675803836346764 4.154612537088547
A 1.780548230180806 2.9675803836346764 5.3416446905424175
A 1.780548230180806 2.9675803836346764 6.528676843996288
A 1.780548230180806 4.154612537088547 0.5935160767269353
A 1.780548230180806 4.154612537088547 1.780548230180806
A 1.780548230180806 4.154612537088547 2.9675803836346764
A 1.780548230180806 4.154612537088547 4.154612537088547
A 1.780548230180806 4.154612537088547 5.3416446905424175
A 1.780548230180806 4.154612537088547 6.528676843996288
A 1.780548230180806 5.3416446905424175 0.5935160767269353
A 1.780548230180806 5.3416446905424175 1.780548230180806
A 1.780548230180806 5.3416446905424175 2.9675803836346764
A 1.780548230180806 5.3416446905424175 4.154612537088547
A 1.780548230180806 5.3416446905424175 5.3416446905424175
A 1.780548230180806 5.3416446905424175 6.528676843996288
A 1.780548230180806 6.528676843996288 0.5935160767269353
A 1.780548230180806 6.528676843996288 1.780548230180806
A 1.780548230180806 6.528676843996288 2.9675803836346764
A 1.780548230180806 6.528676843996288 4.154612537088547
A 1.780548230180806 6.528676843996288 5.3416446905424175
A 1.780548230180806 6.528676843996288 6.528676843996288
A 2.9675803836346764 0.5935160767269353 0.5935160767269353
A 2.9675803836346764 0.5935160767269353 1.780548230180806
A 2.9675803836346764 0.5935160767269353 2.9675803836346764
A 2.9675803836346764 0.5935160767269353 4.154612537088547
A 2.9675803836346764 0.5935160767269353 5.3416446905424175
A 2.9675803836346764 0.5935160767269353 6.528676843996288
A 2.9675803836346764 1.780548230180806 0.5935160767269353
A 2.9675803836346764 1.780548230180806 1.780548230180806
A 2.9675803836346764 1.780548230180806 2.9675803836346764
A 2.9675803836346764 1.780548230180806 4.154612537088547
A 2.9675803836346764 1.780548230180806 5.3416446905424175
A 2.9675803836346764 1.780548230180806 6.528676843996288
A 2.9675803836346764 2.9675803836346764 0.5935160767269353
A 2.9675803836346764 2.9675803836346764 1.780548230180806
A 2.9675803836346764 2.9675803836346764 2.9675803836346764
A 2.9675803836346764 2.9675803836346764 4.154612537088547
A 2.9675803836346764 2.9675803836346764 5.3416446905424175
A 2.9675803836346764 2.9675803836346764 6.528676843996288
A 2.9675803836346764 4.154612537088547 0.5935160767269353
A 2.9675803836346764 4.154612537088547 1.780548230180806
A 2.9675803836346764 4.154612537088547 2.9675803836346764
A 2.9675803836346764 4.154612537088547 4.154612537088547
A 2.9675803836346764 4.154612537088547 5.3416446905424175
A 2.9675803836346764 4.154612537088547 6.528676843996288
A 2.9675803836346764 5.3416446905424175 0.5935160767269353
A 2.9675803836346764 5.3416446905424175 1.780548230180806
A 2.9675803836346764 5.3416446905424175 2.9675803836346764
A 2.9675803836346764 5.3416446905424175 4.154612537088547
A 2.9675803836346764 5.3416446905424175 5.3416446905424175
A 2.9675803836346764 5.3416446905424175 6.528676843996288
A 2.9675803836346764 6.528676843996288 0.5935160767269353
A 2.9675803836346764 6.528676843996288 1.780548230180806
A 2.9675803836346764 6.528676843996288 2.9675803836346764
A 2.9675803836346764 6.528676843996288 4.154612537088547
A 2.9675803836346764 6.528676843996288 5.3416446905424175
A 2.9675803836346764 6.528676843996288 6.528676843996288
A 4.154612537088547 0.5935160767269353 0.5935160767269353
A 4.154612537088547 0.5935160767269353 1.780548230180806
A 4.154612537088547 0.5935160767269353 2.9675803836346764
A 4.154612537088547 0.5935160767269353 4.154612537088547
A 4.154612537088547 0.5935160767269353 5.3416446905424175
A 4.154612537088547 0.5935160767269353 6.528676843996288
A 4.154612537088547 1.780548230180806 0.5935160767269353
A 4.154612537088547 1.780548230180806 1.780548230180806
A 4.154612537088547 1.780548230180806 2.9675803836346764
A 4.154612537088547 1.780548230180806 4.154612537088547
A 4.154612537088547 1.780548230180806 5.3416446905424175
A 4.154612537088547 1.780548230180806 6.528676843996288
A 4.154612537088547 2.9675803836346764 0.5935160767269353
A 4.154612537088547 2.9675803836346764 1.780548230180806
A 4.154612537088547 2.9675803836346764 2.9675803836346764
A 4.154612537088547 2.9675803836346764 4.154612537088547
A 4.154612537088547 2.9675803836346764 5.3416446905424175
A 4.154612537088547 2.9675803836346764 6.528676843996288
A 4.154612537088547 4.154612537088547 0.5935160767269353
A 4.154612537088547 4.154612537088547 1.780548230180806
A 4.154612537088547 4.154612537088547 2.9675803836346764
A 4.154612537088547 4.154612537088547 4.154612537088547
A 4.154612537088547 4.154612537088547 5.3416446905424175
A 4.154612537088547 4.154612537088547 6.528676843996288
A 4.154612537088547 5.3416446905424175 0.5935160767269353
A 4.154612537088547 5.3416446905424175 1.780548230180806
A 4.154612537088547 5.3416446905424175 2.9675803836346764
A 4.154612537088547 5.3416446905424175 4.154612537088547
A 4.154612537088547 5.3416446905424175 5.3416446905424175
A 4.154612537088547 5.3416446905424175 6.528676843996288
A 4.154612537088547 6.528676843996288 0.5935160767269353
A 4.154612537088547 6.528676843996288 1.780548230180806
A 4.154612537088547 6.528676843996288 2.9675803836346764
A 4.154612537088547 6.528676843996288 4.154612537088547
A 4.154612537088547 6.528676843996288 5.3416446905424175
A 4.154612537088547 6.528676843996288 6.528676843996288
A 5.3416446905424175 0.5935160767269353 0.5935160767269353
A 5.3416446905424175 0.5935160767269353 1.780548230180806
A 5.3416446905424175 0.5935160767269353 2.9675803836346764
A 5.3416446905424175 0.5935160767269353 4.154612537088547
A 5.3416446905424175 0.5935160767269353 5.3416446905424175
A 5.3416446905424175 0.5935160767269353 6.528676843996288
A 5.3416446905424175 1.780548230180806 0.5935160767269353
A 5.3416446905424175 1.780548230180806 1.780548230180806
A 5.3416446905424175 1.780548230180806 2.9675803836346764
A 5.3416446905424175 1.780548230180806 4.154612537088547
A 5.3416446905424175 1.780548230180806 5.3416446905424175
A 5.3416446905424175 1.780548230180806 6.528676843996288
A 5.3416446905424175 2.9675803836346764 0.5935160767269353
A 5.3416446905424175 2.9675803836346764 1.780548230180806
A 5.3416446905424175 2.9675803836346764 2.9675803836346764
A 5.3416446905424175 2.9675803836346764 4.154612537088547
A 5.3416446905424175 2.9675803836346764 5.3416446905424175
A 5.3416446905424175 2.9675803836346764 6.528676843996288
A 5.3416446905424175 4.154612537088547 0.5935160767269353
A 5.3416446905424175 4.154612537088547 1.780548230180806
A 5.3416446905424175 4.154612537088547 2.9675803836346764
A 5.3416446905424175 4.154612537088547 4.154612537088547
A 5.3416446905424175 4.154612537088547 5.3416446905424175
A 5.3416446905424175 4.154612537088547 6.528676843996288
A 5.3416446905424175 5.3416446905424175 0.5935160767269353
A 5.3416446905424175 5.3416446905424175 1.780548230180806
A 5.3416446905424175 5.3416446905424175 2.9675803836346764
A 5.3416446905424175 5.3416446905424175 4.154612537088547
A 5.3416446905424175 5.3416446905424175 5.3416446905424175
A 5.3416446905424175 5.3416446905424175 6.528676843996288
A 5.3416446905424175 6.528676843996288 0.5935160767269353
A 5.3416446905424175 6.528676843996288 1.780548230180806
A 5.3416446905424175 6.528676843996288 2.9675803836346764
A 5.3416446905424175 6.528676843996288 4.154612537088547
A 5.3416446905424175 6.528676843996288 5.3416446905424175
A 5.3416446905424175 6.528676843996288 6.528676843996288
A 6.528676843996288 0.5935160767269353 0.5935160767269353
A 6.528676843996288 0.5935160767269353 1.780548230180806
A 6.528676843996288 0.5935160767269353 2.9675803836346764
A 6.528676843996288 0.5935160767269353 4.154612537088547
A 6.528676843996288 0.5935160767269353 5.3416446905424175
A 6.528676843996288 0.5935160767269353 6.528676843996288
A 6.528676843996288 1.780548230180806 0.5935160767269353
A 6.528676843996288 1.780548230180806 1.780548230180806
A 6.528676843996288 1.780548230180806 2.9675803836346764
A 6.528676843996288 1.780548230180806 4.154612537088547
A 6.528676843996288 1.780548230180806 5.3416446905424175
A 6.528676843996288 1.780548230180806 6.528676843996288
A 6.528676843996288 2.9675803836346764 0.5935160767269353
A 6.528676843996288 2.9675803836346764 1.780548230180806
A 6.528676843996288 2.9675803836346764 2.9675803836346764
A 6.528676843996288 2.9675803836346764 4.154612537088547
A 6.528676843996288 2.9675803836346764 5.3416446905424175
A 6.528676843996288 2.9675803836346764 6.528676843996288
A 6.528676843996288 4.154612537088547 0.5935160767269353
A 6.528676843996288 4.154612537088547 1.780548230180806
A 6.528676843996288 4.154612537088547 2.9675803836346764
A 6.528676843996288 4.154612537088547 4.154612537088547
A 6.528676843996288 4.154612537088547 5.3416446905424175
A 6.528676843996288 4.154612537088547 6.528676843996288
A 6.528676843996288 5.3416446905424175 0.5935160767269353
A 6.528676843996288 5.3416446905424175 1.780548230180806
A 6.528676843996288 5.3416446905424175 2.9675803836346764
A 6.528676843996288 5.3416446905424175 4.154612537088547
A 6.528676843996288 5.3416446905424175 5.3416446905424175
A 6.528676843996288 5.3416446905424175 6.528676843996288
A 6.528676843996288 6.528676843996288 0.5935160767269353
A 6.528676843996288 6.528676843996288 1.780548230180806
A 6.528676843996288 6.528676843996288 2.9675803836346764
A 6.528676843996288 6.528676843996288 4.154612537088547
A 6.528676843996288 6.528676843996288 5.3416446905424175
A 6.528676843996288 6.528676843996288 6.528676843996288
